Meta-analysis course: part 1 : Systematic reviews, meta-analysis, and introduction to R
…
 If you want to use the base version of these functions after loading dplyr, you’ll need to use their full names: stats::filter() and stats::lag()

<img src="http://s2.quickmeme.com/img/83/83f3188fb441ef8a727dac6715f50478910342242eb4f6e974675a3f75c044d8.jpg" width="200px" />
---
## NYC Flights
 This data frame contains all 336,776 flights (**!**) that departed from New York City in 2013. 

 From the US Bureau of Transportation Statistics, and is documented in ?flights.

```r
nycflights13::flights
```

```
## # A tibble: 336,776 x 19
##     year month   day dep_time sched_dep_time dep_delay arr_time
##    <int> <int> <int>    <int>          <int>     <dbl>    <int>
##  1  2013     1     1      517            515         2      830
##  2  2013     1     1      533            529         4      850
##  3  2013     1     1      542            540         2      923
##  4  2013     1     1      544            545        -1     1004
##  5  2013     1     1      554            600        -6      812
##  6  2013     1     1      554            558        -4      740
##  7  2013     1     1      555            600        -5      913
##  8  2013     1     1      557            600        -3      709
##  9  2013     1     1      557            600        -3      838
## 10  2013     1     1      558            600        -2      753
## # … with 336,766 more rows, and 12 more variables: sched_arr_time <int>,
## #   arr_delay <dbl>, carrier <chr>, flight <int>, tailnum <chr>,
## #   origin <chr>, dest <chr>, air_time <dbl>, distance <dbl>, hour <dbl>,
## #   minute <dbl>, time_hour <dttm>
```
…
